{
    "items": [
      {
        "external_urls": {
          "spotify": "https://open.spotify.com/artist/1zNqDE7qDGCsyzJwohVaoX"
        },
        "followers": {
          "href": null,
          "total": 11829818
        },
        "genres": [
          "pop"
        ],
        "href": "https://api.spotify.com/v1/artists/1zNqDE7qDGCsyzJwohVaoX",
        "id": "1zNqDE7qDGCsyzJwohVaoX",
        "images": [
          {
            "height": 640,
            "url": "https://i.scdn.co/image/ab6761610000e5eb679c995b0d4a641ba32aa5f0",
            "width": 640
          },
          {
            "height": 320,
            "url": "https://i.scdn.co/image/ab67616100005174679c995b0d4a641ba32aa5f0",
            "width": 320
          },
          {
            "height": 160,
            "url": "https://i.scdn.co/image/ab6761610000f178679c995b0d4a641ba32aa5f0",
            "width": 160
          }
        ],
        "name": "Anne-Marie",
        "popularity": 75,
        "type": "artist",
        "uri": "spotify:artist:1zNqDE7qDGCsyzJwohVaoX"
      },
      {
        "external_urls": {
          "spotify": "https://open.spotify.com/artist/06HL4z0CvFAxyc27GXpf02"
        },
        "followers": {
          "href": null,
          "total": 110525719
        },
        "genres": [
          "pop"
        ],
        "href": "https://api.spotify.com/v1/artists/06HL4z0CvFAxyc27GXpf02",
        "id": "06HL4z0CvFAxyc27GXpf02",
        "images": [
          {
            "height": 640,
            "url": "https://i.scdn.co/image/ab6761610000e5ebe672b5f553298dcdccb0e676",
            "width": 640
          },
          {
            "height": 320,
            "url": "https://i.scdn.co/image/ab67616100005174e672b5f553298dcdccb0e676",
            "width": 320
          },
          {
            "height": 160,
            "url": "https://i.scdn.co/image/ab6761610000f178e672b5f553298dcdccb0e676",
            "width": 160
          }
        ],
        "name": "Taylor Swift",
        "popularity": 100,
        "type": "artist",
        "uri": "spotify:artist:06HL4z0CvFAxyc27GXpf02"
      },
      {
        "external_urls": {
          "spotify": "https://open.spotify.com/artist/1Cs0zKBU1kc0i8ypK3B9ai"
        },
        "followers": {
          "href": null,
          "total": 25470275
        },
        "genres": [
          "big room",
          "dance pop",
          "edm",
          "pop",
          "pop dance"
        ],
        "href": "https://api.spotify.com/v1/artists/1Cs0zKBU1kc0i8ypK3B9ai",
        "id": "1Cs0zKBU1kc0i8ypK3B9ai",
        "images": [
          {
            "height": 640,
            "url": "https://i.scdn.co/image/ab6761610000e5ebf150017ca69c8793503c2d4f",
            "width": 640
          },
          {
            "height": 320,
            "url": "https://i.scdn.co/image/ab67616100005174f150017ca69c8793503c2d4f",
            "width": 320
          },
          {
            "height": 160,
            "url": "https://i.scdn.co/image/ab6761610000f178f150017ca69c8793503c2d4f",
            "width": 160
          }
        ],
        "name": "David Guetta",
        "popularity": 86,
        "type": "artist",
        "uri": "spotify:artist:1Cs0zKBU1kc0i8ypK3B9ai"
      },
      {
        "external_urls": {
          "spotify": "https://open.spotify.com/artist/6yhD1KjhLxIETFF7vIRf8B"
        },
        "followers": {
          "href": null,
          "total": 494971
        },
        "genres": [
          "neon pop punk",
          "pixie",
          "pop punk"
        ],
        "href": "https://api.spotify.com/v1/artists/6yhD1KjhLxIETFF7vIRf8B",
        "id": "6yhD1KjhLxIETFF7vIRf8B",
        "images": [
          {
            "height": 640,
            "url": "https://i.scdn.co/image/ab6761610000e5eb469aba515a0815396f1c432c",
            "width": 640
          },
          {
            "height": 320,
            "url": "https://i.scdn.co/image/ab67616100005174469aba515a0815396f1c432c",
            "width": 320
          },
          {
            "height": 160,
            "url": "https://i.scdn.co/image/ab6761610000f178469aba515a0815396f1c432c",
            "width": 160
          }
        ],
        "name": "Against The Current",
        "popularity": 61,
        "type": "artist",
        "uri": "spotify:artist:6yhD1KjhLxIETFF7vIRf8B"
      },
      {
        "external_urls": {
          "spotify": "https://open.spotify.com/artist/6M2wZ9GZgrQXHCFfjv46we"
        },
        "followers": {
          "href": null,
          "total": 43375009
        },
        "genres": [
          "dance pop",
          "pop",
          "uk pop"
        ],
        "href": "https://api.spotify.com/v1/artists/6M2wZ9GZgrQXHCFfjv46we",
        "id": "6M2wZ9GZgrQXHCFfjv46we",
        "images": [
          {
            "height": 640,
            "url": "https://i.scdn.co/image/ab6761610000e5eb0c68f6c95232e716f0abee8d",
            "width": 640
          },
          {
            "height": 320,
            "url": "https://i.scdn.co/image/ab676161000051740c68f6c95232e716f0abee8d",
            "width": 320
          },
          {
            "height": 160,
            "url": "https://i.scdn.co/image/ab6761610000f1780c68f6c95232e716f0abee8d",
            "width": 160
          }
        ],
        "name": "Dua Lipa",
        "popularity": 87,
        "type": "artist",
        "uri": "spotify:artist:6M2wZ9GZgrQXHCFfjv46we"
      },
      {
        "external_urls": {
          "spotify": "https://open.spotify.com/artist/6S2OmqARrzebs0tKUEyXyp"
        },
        "followers": {
          "href": null,
          "total": 26343348
        },
        "genres": [
          "pop",
          "post-teen pop"
        ],
        "href": "https://api.spotify.com/v1/artists/6S2OmqARrzebs0tKUEyXyp",
        "id": "6S2OmqARrzebs0tKUEyXyp",
        "images": [
          {
            "height": 640,
            "url": "https://i.scdn.co/image/ab6761610000e5ebcf674ecb51186e6408cd18c0",
            "width": 640
          },
          {
            "height": 320,
            "url": "https://i.scdn.co/image/ab67616100005174cf674ecb51186e6408cd18c0",
            "width": 320
          },
          {
            "height": 160,
            "url": "https://i.scdn.co/image/ab6761610000f178cf674ecb51186e6408cd18c0",
            "width": 160
          }
        ],
        "name": "Demi Lovato",
        "popularity": 74,
        "type": "artist",
        "uri": "spotify:artist:6S2OmqARrzebs0tKUEyXyp"
      },
      {
        "external_urls": {
          "spotify": "https://open.spotify.com/artist/69GGBxA162lTqCwzJG5jLp"
        },
        "followers": {
          "href": null,
          "total": 20094538
        },
        "genres": [
          "pop"
        ],
        "href": "https://api.spotify.com/v1/artists/69GGBxA162lTqCwzJG5jLp",
        "id": "69GGBxA162lTqCwzJG5jLp",
        "images": [
          {
            "height": 640,
            "url": "https://i.scdn.co/image/ab6761610000e5eb9c0f09a8247c54ecba74819d",
            "width": 640
          },
          {
            "height": 320,
            "url": "https://i.scdn.co/image/ab676161000051749c0f09a8247c54ecba74819d",
            "width": 320
          },
          {
            "height": 160,
            "url": "https://i.scdn.co/image/ab6761610000f1789c0f09a8247c54ecba74819d",
            "width": 160
          }
        ],
        "name": "The Chainsmokers",
        "popularity": 79,
        "type": "artist",
        "uri": "spotify:artist:69GGBxA162lTqCwzJG5jLp"
      },
      {
        "external_urls": {
          "spotify": "https://open.spotify.com/artist/4dpARuHxo51G3z768sgnrY"
        },
        "followers": {
          "href": null,
          "total": 55337041
        },
        "genres": [
          "british soul",
          "pop",
          "pop soul",
          "uk pop"
        ],
        "href": "https://api.spotify.com/v1/artists/4dpARuHxo51G3z768sgnrY",
        "id": "4dpARuHxo51G3z768sgnrY",
        "images": [
          {
            "height": 640,
            "url": "https://i.scdn.co/image/ab6761610000e5eb68f6e5892075d7f22615bd17",
            "width": 640
          },
          {
            "height": 320,
            "url": "https://i.scdn.co/image/ab6761610000517468f6e5892075d7f22615bd17",
            "width": 320
          },
          {
            "height": 160,
            "url": "https://i.scdn.co/image/ab6761610000f17868f6e5892075d7f22615bd17",
            "width": 160
          }
        ],
        "name": "Adele",
        "popularity": 81,
        "type": "artist",
        "uri": "spotify:artist:4dpARuHxo51G3z768sgnrY"
      },
      {
        "external_urls": {
          "spotify": "https://open.spotify.com/artist/47mIJdHORyRerp4os813jD"
        },
        "followers": {
          "href": null,
          "total": 1843632
        },
        "genres": [
          "speedrun",
          "video game music"
        ],
        "href": "https://api.spotify.com/v1/artists/47mIJdHORyRerp4os813jD",
        "id": "47mIJdHORyRerp4os813jD",
        "images": [
          {
            "height": 640,
            "url": "https://i.scdn.co/image/ab6761610000e5ebe80d1ffb81aa6503ad41c574",
            "width": 640
          },
          {
            "height": 320,
            "url": "https://i.scdn.co/image/ab67616100005174e80d1ffb81aa6503ad41c574",
            "width": 320
          },
          {
            "height": 160,
            "url": "https://i.scdn.co/image/ab6761610000f178e80d1ffb81aa6503ad41c574",
            "width": 160
          }
        ],
        "name": "League of Legends",
        "popularity": 74,
        "type": "artist",
        "uri": "spotify:artist:47mIJdHORyRerp4os813jD"
      },
      {
        "external_urls": {
          "spotify": "https://open.spotify.com/artist/53XhwfbYqKCa1cC15pYq2q"
        },
        "followers": {
          "href": null,
          "total": 52444918
        },
        "genres": [
          "modern rock",
          "pop",
          "rock"
        ],
        "href": "https://api.spotify.com/v1/artists/53XhwfbYqKCa1cC15pYq2q",
        "id": "53XhwfbYqKCa1cC15pYq2q",
        "images": [
          {
            "height": 640,
            "url": "https://i.scdn.co/image/ab6761610000e5ebab47d8dae2b24f5afe7f9d38",
            "width": 640
          },
          {
            "height": 320,
            "url": "https://i.scdn.co/image/ab67616100005174ab47d8dae2b24f5afe7f9d38",
            "width": 320
          },
          {
            "height": 160,
            "url": "https://i.scdn.co/image/ab6761610000f178ab47d8dae2b24f5afe7f9d38",
            "width": 160
          }
        ],
        "name": "Imagine Dragons",
        "popularity": 84,
        "type": "artist",
        "uri": "spotify:artist:53XhwfbYqKCa1cC15pYq2q"
      },
      {
        "external_urls": {
          "spotify": "https://open.spotify.com/artist/26VFTg2z8YR0cCuwLzESi2"
        },
        "followers": {
          "href": null,
          "total": 21441425
        },
        "genres": [
          "electropop",
          "etherpop",
          "indie poptimism",
          "pop"
        ],
        "href": "https://api.spotify.com/v1/artists/26VFTg2z8YR0cCuwLzESi2",
        "id": "26VFTg2z8YR0cCuwLzESi2",
        "images": [
          {
            "height": 640,
            "url": "https://i.scdn.co/image/ab6761610000e5ebd707e1c5177614c4ec95a06c",
            "width": 640
          },
          {
            "height": 320,
            "url": "https://i.scdn.co/image/ab67616100005174d707e1c5177614c4ec95a06c",
            "width": 320
          },
          {
            "height": 160,
            "url": "https://i.scdn.co/image/ab6761610000f178d707e1c5177614c4ec95a06c",
            "width": 160
          }
        ],
        "name": "Halsey",
        "popularity": 78,
        "type": "artist",
        "uri": "spotify:artist:26VFTg2z8YR0cCuwLzESi2"
      },
      {
        "external_urls": {
          "spotify": "https://open.spotify.com/artist/6mx5dgNlLjrDDMyFsgrW87"
        },
        "followers": {
          "href": null,
          "total": 193040
        },
        "genres": [
          "singer-songwriter pop"
        ],
        "href": "https://api.spotify.com/v1/artists/6mx5dgNlLjrDDMyFsgrW87",
        "id": "6mx5dgNlLjrDDMyFsgrW87",
        "images": [
          {
            "height": 640,
            "url": "https://i.scdn.co/image/ab6761610000e5eb48869741142a37ed3864e940",
            "width": 640
          },
          {
            "height": 320,
            "url": "https://i.scdn.co/image/ab6761610000517448869741142a37ed3864e940",
            "width": 320
          },
          {
            "height": 160,
            "url": "https://i.scdn.co/image/ab6761610000f17848869741142a37ed3864e940",
            "width": 160
          }
        ],
        "name": "TALK",
        "popularity": 55,
        "type": "artist",
        "uri": "spotify:artist:6mx5dgNlLjrDDMyFsgrW87"
      },
      {
        "external_urls": {
          "spotify": "https://open.spotify.com/artist/1McMsnEElThX1knmY4oliG"
        },
        "followers": {
          "href": null,
          "total": 35952797
        },
        "genres": [
          "pop"
        ],
        "href": "https://api.spotify.com/v1/artists/1McMsnEElThX1knmY4oliG",
        "id": "1McMsnEElThX1knmY4oliG",
        "images": [
          {
            "height": 640,
            "url": "https://i.scdn.co/image/ab6761610000e5ebe03a98785f3658f0b6461ec4",
            "width": 640
          },
          {
            "height": 320,
            "url": "https://i.scdn.co/image/ab67616100005174e03a98785f3658f0b6461ec4",
            "width": 320
          },
          {
            "height": 160,
            "url": "https://i.scdn.co/image/ab6761610000f178e03a98785f3658f0b6461ec4",
            "width": 160
          }
        ],
        "name": "Olivia Rodrigo",
        "popularity": 86,
        "type": "artist",
        "uri": "spotify:artist:1McMsnEElThX1knmY4oliG"
      },
      {
        "external_urls": {
          "spotify": "https://open.spotify.com/artist/0C8ZW7ezQVs4URX5aX7Kqx"
        },
        "followers": {
          "href": null,
          "total": 49280693
        },
        "genres": [
          "pop",
          "post-teen pop"
        ],
        "href": "https://api.spotify.com/v1/artists/0C8ZW7ezQVs4URX5aX7Kqx",
        "id": "0C8ZW7ezQVs4URX5aX7Kqx",
        "images": [
          {
            "height": 640,
            "url": "https://i.scdn.co/image/ab6761610000e5ebc3c753851496854e29abff7a",
            "width": 640
          },
          {
            "height": 320,
            "url": "https://i.scdn.co/image/ab67616100005174c3c753851496854e29abff7a",
            "width": 320
          },
          {
            "height": 160,
            "url": "https://i.scdn.co/image/ab6761610000f178c3c753851496854e29abff7a",
            "width": 160
          }
        ],
        "name": "Selena Gomez",
        "popularity": 79,
        "type": "artist",
        "uri": "spotify:artist:0C8ZW7ezQVs4URX5aX7Kqx"
      },
      {
        "external_urls": {
          "spotify": "https://open.spotify.com/artist/6eUKZXaKkcviH0Ku9w2n3V"
        },
        "followers": {
          "href": null,
          "total": 114027352
        },
        "genres": [
          "pop",
          "singer-songwriter pop",
          "uk pop"
        ],
        "href": "https://api.spotify.com/v1/artists/6eUKZXaKkcviH0Ku9w2n3V",
        "id": "6eUKZXaKkcviH0Ku9w2n3V",
        "images": [
          {
            "height": 640,
            "url": "https://i.scdn.co/image/ab6761610000e5eb3bcef85e105dfc42399ef0ba",
            "width": 640
          },
          {
            "height": 320,
            "url": "https://i.scdn.co/image/ab676161000051743bcef85e105dfc42399ef0ba",
            "width": 320
          },
          {
            "height": 160,
            "url": "https://i.scdn.co/image/ab6761610000f1783bcef85e105dfc42399ef0ba",
            "width": 160
          }
        ],
        "name": "Ed Sheeran",
        "popularity": 84,
        "type": "artist",
        "uri": "spotify:artist:6eUKZXaKkcviH0Ku9w2n3V"
      },
      {
        "external_urls": {
          "spotify": "https://open.spotify.com/artist/5yw4tA8D5uG7tT3NaDvq10"
        },
        "followers": {
          "href": null,
          "total": 581615
        },
        "genres": [
          "social media pop"
        ],
        "href": "https://api.spotify.com/v1/artists/5yw4tA8D5uG7tT3NaDvq10",
        "id": "5yw4tA8D5uG7tT3NaDvq10",
        "images": [
          {
            "height": 640,
            "url": "https://i.scdn.co/image/ab6761610000e5eb345f5d936d8bc62daf2b814a",
            "width": 640
          },
          {
            "height": 320,
            "url": "https://i.scdn.co/image/ab67616100005174345f5d936d8bc62daf2b814a",
            "width": 320
          },
          {
            "height": 160,
            "url": "https://i.scdn.co/image/ab6761610000f178345f5d936d8bc62daf2b814a",
            "width": 160
          }
        ],
        "name": "Stellar",
        "popularity": 64,
        "type": "artist",
        "uri": "spotify:artist:5yw4tA8D5uG7tT3NaDvq10"
      },
      {
        "external_urls": {
          "spotify": "https://open.spotify.com/artist/2wUjUUtkb5lvLKcGKsKqsR"
        },
        "followers": {
          "href": null,
          "total": 11759006
        },
        "genres": [
          "canadian contemporary r&b",
          "canadian pop",
          "pop"
        ],
        "href": "https://api.spotify.com/v1/artists/2wUjUUtkb5lvLKcGKsKqsR",
        "id": "2wUjUUtkb5lvLKcGKsKqsR",
        "images": [
          {
            "height": 640,
            "url": "https://i.scdn.co/image/ab6761610000e5ebe74b7398634a741f74858dc7",
            "width": 640
          },
          {
            "height": 320,
            "url": "https://i.scdn.co/image/ab67616100005174e74b7398634a741f74858dc7",
            "width": 320
          },
          {
            "height": 160,
            "url": "https://i.scdn.co/image/ab6761610000f178e74b7398634a741f74858dc7",
            "width": 160
          }
        ],
        "name": "Alessia Cara",
        "popularity": 69,
        "type": "artist",
        "uri": "spotify:artist:2wUjUUtkb5lvLKcGKsKqsR"
      },
      {
        "external_urls": {
          "spotify": "https://open.spotify.com/artist/5Pwc4xIPtQLFEnJriah9YJ"
        },
        "followers": {
          "href": null,
          "total": 16922995
        },
        "genres": [
          "piano rock",
          "pop"
        ],
        "href": "https://api.spotify.com/v1/artists/5Pwc4xIPtQLFEnJriah9YJ",
        "id": "5Pwc4xIPtQLFEnJriah9YJ",
        "images": [
          {
            "height": 640,
            "url": "https://i.scdn.co/image/ab6761610000e5eb57138b98e7ddd5a86ee97a9b",
            "width": 640
          },
          {
            "height": 320,
            "url": "https://i.scdn.co/image/ab6761610000517457138b98e7ddd5a86ee97a9b",
            "width": 320
          },
          {
            "height": 160,
            "url": "https://i.scdn.co/image/ab6761610000f17857138b98e7ddd5a86ee97a9b",
            "width": 160
          }
        ],
        "name": "OneRepublic",
        "popularity": 81,
        "type": "artist",
        "uri": "spotify:artist:5Pwc4xIPtQLFEnJriah9YJ"
      },
      {
        "external_urls": {
          "spotify": "https://open.spotify.com/artist/6d8NscVVbeMVINZwJDOoN5"
        },
        "followers": {
          "href": null,
          "total": 1044183
        },
        "genres": [],
        "href": "https://api.spotify.com/v1/artists/6d8NscVVbeMVINZwJDOoN5",
        "id": "6d8NscVVbeMVINZwJDOoN5",
        "images": [
          {
            "height": 640,
            "url": "https://i.scdn.co/image/ab6761610000e5eb248a1e6cf5ec891344272633",
            "width": 640
          },
          {
            "height": 320,
            "url": "https://i.scdn.co/image/ab67616100005174248a1e6cf5ec891344272633",
            "width": 320
          },
          {
            "height": 160,
            "url": "https://i.scdn.co/image/ab6761610000f178248a1e6cf5ec891344272633",
            "width": 160
          }
        ],
        "name": "Crash Adams",
        "popularity": 56,
        "type": "artist",
        "uri": "spotify:artist:6d8NscVVbeMVINZwJDOoN5"
      },
      {
        "external_urls": {
          "spotify": "https://open.spotify.com/artist/22wbnEMDvgVIAGdFeek6ET"
        },
        "followers": {
          "href": null,
          "total": 2534563
        },
        "genres": [
          "singer-songwriter pop"
        ],
        "href": "https://api.spotify.com/v1/artists/22wbnEMDvgVIAGdFeek6ET",
        "id": "22wbnEMDvgVIAGdFeek6ET",
        "images": [
          {
            "height": 640,
            "url": "https://i.scdn.co/image/ab6761610000e5ebb2ce21a89c09c00d80d8ca25",
            "width": 640
          },
          {
            "height": 320,
            "url": "https://i.scdn.co/image/ab67616100005174b2ce21a89c09c00d80d8ca25",
            "width": 320
          },
          {
            "height": 160,
            "url": "https://i.scdn.co/image/ab6761610000f178b2ce21a89c09c00d80d8ca25",
            "width": 160
          }
        ],
        "name": "Benson Boone",
        "popularity": 84,
        "type": "artist",
        "uri": "spotify:artist:22wbnEMDvgVIAGdFeek6ET"
      }
    ],
    "total": 202,
    "limit": 20,
    "offset": 0,
    "href": "https://api.spotify.com/v1/me/top/artists?locale=en-US,en;q%3D0.9",
    "next": "https://api.spotify.com/v1/me/top/artists?offset=20&limit=20&locale=en-US,en;q%3D0.9",
    "previous": null
  }